%YAML 1.1
%TAG !u! tag:unity3d.com,2011:
--- !u!114 &11400000
MonoBehaviour:
  m_ObjectHideFlags: 0
  m_CorrespondingSourceObject: {fileID: 0}
  m_PrefabInstance: {fileID: 0}
  m_PrefabAsset: {fileID: 0}
  m_GameObject: {fileID: 0}
  m_Enabled: 1
  m_EditorHideFlags: 0
  m_Script: {fileID: 11500000, guid: af822c305b1ad0748a7f81c798af987c, type: 3}
  m_Name: State_Sniper_Recover
  m_EditorClassIdentifier: 
  actions:
  - {fileID: 11400000, guid: 9518dbf2634207748afd5e09975eb812, type: 2}
  transitions:
  - decision: {fileID: 11400000, guid: 4b0ab452dd137694f8326c283ac830a4, type: 2}
    trueState:
    - {fileID: 11400000, guid: 9f5e1c5b1f8a00e49bc010ceaac6d559, type: 2}
    falseState:
    - {fileID: 11400000, guid: ece4b86ecdd153b468a2b7506c624eb8, type: 2}
  sceneGizmoColor: {r: 1, g: 0, b: 0.944716, a: 1}
